samples	C	T
ER15M_Bminus_Aug2012	7	0
ER15M_Bminus_Aug2013	6	0
ER15M_DCL_Aug2013	1	0
ER15M_LEP_Aug2012	1	0
ER15M_MHY_Aug2012	1	0
ER15M_MHY_Aug2013	6	0
ER15M_MID_April2013	1	0
ER15M_SRF_Apr2012	1	0
ER78M_Bminus_Aug2012	1	0
ER78M_Bminus_Aug2013	1	0
ER78M_LEP_Aug2012	1	0
ER78M_LEP_Aug2013	1	1
ER78M_SRF_Aug2012	2	0
ER78M_SRF_Aug2013	1	0
ER91M_Bminus_April2013	9	0
ER91M_Bminus_Aug2012	4	0
ER91M_Bminus_Aug2013	1	0
ER91M_MEP_Aug2012	3	0
ER91M_MEP_Aug2013	3	1
ER91M_MID_April2013	6	3
ER91M_SRF_Aug2012	6	0
ER91M_SRF_Aug2013	1	0
HU15M_B10_April2013	39	1
HU15M_B10_Aug2012	4	0
HU15M_B10_Aug2013	1	0
HU15M_MHY_Aug2013	2	0
HU15M_MID_April2013	7	0
HU15M_SRF_April2013	5	1
HU15M_TRM_Aug2013	1	0
HU45M_B10_April2013	525	25
HU45M_B10_Aug2012	399	23
HU45M_B10_Aug2013	6	0
HU45M_DCL_Aug2012	2	1
HU45M_MHY_Aug2012	84	3
HU45M_MHY_Aug2013	48	4
HU45M_MID_April2013	439	26
HU45M_SRF_Apr2012	4	0
HU45M_SRF_April2013	318	17
HU45M_SRF_Aug2012	1	0
HU54M_B10_April2013	192	11
HU54M_B10_Aug2012	157	5
HU54M_B10_Aug2013	3	0
HU54M_DCL_Aug2012	23	2
HU54M_MHY_Aug2012	97	4
HU54M_MID_April2013	162	7
HU54M_SRF_April2013	283	18
LakeGuardian_ShipWater1	6	0
LakeGuardian_ShipWater2	11	0
MI18M_B10_April2013	440	19
MI18M_B10_Aug2012	127	7
MI18M_B10_Aug2013	4738	250
MI18M_DCL_Aug2013	3	0
MI18M_MHY_Aug2012	150	4
MI18M_MHY_Aug2013	132	5
MI18M_MID_April2013	653	23
MI18M_SRF_April2013	257	11
MI18M_SRF_Aug2012	1	0
MI27M_B10_April2013	287	9
MI27M_B10_Aug2012	20	1
MI27M_B10_Aug2013	65	7
MI27M_DCL_Aug2012	1	0
MI27M_DCL_Aug2013	1	0
MI27M_MHY_Aug2012	11	0
MI27M_MHY_Aug2013	1	1
MI27M_MID_April2013	397	20
MI27M_SRF_Apr2012	8	1
MI27M_SRF_April2013	176	9
MI27M_SRF_Aug2012	1	0
MI40_B10_Aug2015	477	25
MI40_DCL_Aug2015	111	5
MI40_MHY_Aug2015	509	29
MI40_SRF_Aug2015	3	0
MI41M_B10_1L_Aug2015	1347	69
MI41M_B10_April2013	1150	42
MI41M_B10_Aug2012	3634	204
MI41M_B10_Aug2013	4593	252
MI41M_B10_Aug2015	1030	59
MI41M_DCL_1L_Aug2015	62	3
MI41M_DCL_Aug2012	5	0
MI41M_DCL_Aug2013	2	0
MI41M_DCL_Aug2015	69	3
MI41M_MHY_1L_Aug2015	1335	75
MI41M_MHY_Aug2012	2340	140
MI41M_MHY_Aug2013	2289	128
MI41M_MHY_Aug2015	287	12
MI41M_MID_April2013	676	40
MI41M_SRF_April2013	947	61
MIFO_B10_Aug2015	281	16
MIFO_DCL_Aug2015	106	5
MIFO_MHY_Aug2015	1015	57
MIFO_SRF_Aug2015	3	0
ON33M_B10_April2013	41	1
ON33M_B10_Aug2012	1329	80
ON33M_B10_Aug2013	1437	71
ON33M_DCL_Aug2013	1	0
ON33M_LEP_Aug2012	2	0
ON33M_MHY_Aug2012	1004	62
ON33M_MHY_Aug2013	1421	86
ON33M_MID_April2013	542	37
ON33M_SRF_Apr2012	49	2
ON33M_SRF_April2013	413	27
ON33M_SRF_Aug2012	2	1
ON55M_B10_April2013	59	2
ON55M_B10_Aug2012	1356	81
ON55M_B10_Aug2013	1873	101
ON55M_DCL_Aug2013	2	0
ON55M_MHY_Aug2012	1959	95
ON55M_MHY_Aug2013	3978	210
ON55M_MID_April2013	79	5
ON55M_SRF_April2013	28	1
ON68b_B10_Aug2012	5	0
ON68b_SRF_Aug2013	2	0
SU01M_B10_April2013	826	39
SU01M_B10_Aug2012	2153	107
SU01M_B10_Aug2013	184	8
SU01M_DCL_Aug2012	60	3
SU01M_DCL_Aug2013	74	8
SU01M_MHY_Aug2012	2641	127
SU01M_MHY_Aug2013	223	11
SU01M_MID_April2013	45	2
SU01M_SRF_April2013	40	3
SU01M_SRF_Aug2012	3	0
SU08M_B10_April2013	2980	159
SU08M_B10_Aug2012	3657	197
SU08M_B10_Aug2013	86	4
SU08M_DCL_Aug2012	71	2
SU08M_DCL_Aug2013	2	0
SU08M_MHY_Aug2012	5194	278
SU08M_MHY_Aug2013	93	7
SU08M_MID_April2013	1818	123
SU08M_SRF_Apr2012	72	7
SU08M_SRF_April2013	1693	90
SU08M_SRF_Aug2012	2	0
SU08M_SRF_Aug2013	1	0
SU17M_B10_April2013	2226	114
SU17M_B10_Aug2013	18	0
SU17M_MHY_Aug2013	22	2
SU17M_MID_April2013	846	43
SU17M_SRF_April2013	113	10
SU18_B10_Aug2012	199	11
SU18_B10_Aug2013	174	6
SU18_DCL_Aug2012	13	0
SU18_DCL_Aug2013	64	3
SU18_MHY_Aug2012	243	16
SU18_MHY_Aug2013	206	13
SU18_SRF_Aug2012	3	0
SU18_SRF_Aug2013	1	0
