<?xml version="1.0" encoding="UTF-8"?>
<gexf xmlns:viz="http:///www.gexf.net/1.1draft/viz" xmlns="http://www.gexf.net/1.2draft" version="1.2">
<meta lastmodifieddate="2010-01-01+23:42">
    <creator>Oligotyping pipeline</creator>
    <creator>Network description for nitrospiraceae</creator>
</meta>
<graph type="static" defaultedgetype="undirected">

<nodes>
    <node id="ER15M_Bminus_Aug2012" label="ER15M_Bminus_Aug2012">
        <viz:size value="8"/>
    </node>
    <node id="ER15M_Bminus_Aug2013" label="ER15M_Bminus_Aug2013">
        <viz:size value="8"/>
    </node>
    <node id="ER15M_DCL_Aug2013" label="ER15M_DCL_Aug2013">
        <viz:size value="8"/>
    </node>
    <node id="ER15M_LEP_Aug2012" label="ER15M_LEP_Aug2012">
        <viz:size value="8"/>
    </node>
    <node id="ER15M_MHY_Aug2012" label="ER15M_MHY_Aug2012">
        <viz:size value="8"/>
    </node>
    <node id="ER15M_MHY_Aug2013" label="ER15M_MHY_Aug2013">
        <viz:size value="8"/>
    </node>
    <node id="ER15M_MID_April2013" label="ER15M_MID_April2013">
        <viz:size value="8"/>
    </node>
    <node id="ER15M_SRF_Apr2012" label="ER15M_SRF_Apr2012">
        <viz:size value="8"/>
    </node>
    <node id="ER78M_Bminus_Aug2012" label="ER78M_Bminus_Aug2012">
        <viz:size value="8"/>
    </node>
    <node id="ER78M_Bminus_Aug2013" label="ER78M_Bminus_Aug2013">
        <viz:size value="8"/>
    </node>
    <node id="ER78M_LEP_Aug2012" label="ER78M_LEP_Aug2012">
        <viz:size value="8"/>
    </node>
    <node id="ER78M_LEP_Aug2013" label="ER78M_LEP_Aug2013">
        <viz:size value="8"/>
    </node>
    <node id="ER78M_SRF_Aug2012" label="ER78M_SRF_Aug2012">
        <viz:size value="8"/>
    </node>
    <node id="ER78M_SRF_Aug2013" label="ER78M_SRF_Aug2013">
        <viz:size value="8"/>
    </node>
    <node id="ER91M_Bminus_April2013" label="ER91M_Bminus_April2013">
        <viz:size value="8"/>
    </node>
    <node id="ER91M_Bminus_Aug2012" label="ER91M_Bminus_Aug2012">
        <viz:size value="8"/>
    </node>
    <node id="ER91M_Bminus_Aug2013" label="ER91M_Bminus_Aug2013">
        <viz:size value="8"/>
    </node>
    <node id="ER91M_MEP_Aug2012" label="ER91M_MEP_Aug2012">
        <viz:size value="8"/>
    </node>
    <node id="ER91M_MEP_Aug2013" label="ER91M_MEP_Aug2013">
        <viz:size value="8"/>
    </node>
    <node id="ER91M_MID_April2013" label="ER91M_MID_April2013">
        <viz:size value="8"/>
    </node>
    <node id="ER91M_SRF_Aug2012" label="ER91M_SRF_Aug2012">
        <viz:size value="8"/>
    </node>
    <node id="ER91M_SRF_Aug2013" label="ER91M_SRF_Aug2013">
        <viz:size value="8"/>
    </node>
    <node id="HU15M_B10_April2013" label="HU15M_B10_April2013">
        <viz:size value="8"/>
    </node>
    <node id="HU15M_B10_Aug2012" label="HU15M_B10_Aug2012">
        <viz:size value="8"/>
    </node>
    <node id="HU15M_B10_Aug2013" label="HU15M_B10_Aug2013">
        <viz:size value="8"/>
    </node>
    <node id="HU15M_MHY_Aug2013" label="HU15M_MHY_Aug2013">
        <viz:size value="8"/>
    </node>
    <node id="HU15M_MID_April2013" label="HU15M_MID_April2013">
        <viz:size value="8"/>
    </node>
    <node id="HU15M_SRF_April2013" label="HU15M_SRF_April2013">
        <viz:size value="8"/>
    </node>
    <node id="HU15M_TRM_Aug2013" label="HU15M_TRM_Aug2013">
        <viz:size value="8"/>
    </node>
    <node id="HU45M_B10_April2013" label="HU45M_B10_April2013">
        <viz:size value="8"/>
    </node>
    <node id="HU45M_B10_Aug2012" label="HU45M_B10_Aug2012">
        <viz:size value="8"/>
    </node>
    <node id="HU45M_B10_Aug2013" label="HU45M_B10_Aug2013">
        <viz:size value="8"/>
    </node>
    <node id="HU45M_DCL_Aug2012" label="HU45M_DCL_Aug2012">
        <viz:size value="8"/>
    </node>
    <node id="HU45M_MHY_Aug2012" label="HU45M_MHY_Aug2012">
        <viz:size value="8"/>
    </node>
    <node id="HU45M_MHY_Aug2013" label="HU45M_MHY_Aug2013">
        <viz:size value="8"/>
    </node>
    <node id="HU45M_MID_April2013" label="HU45M_MID_April2013">
        <viz:size value="8"/>
    </node>
    <node id="HU45M_SRF_Apr2012" label="HU45M_SRF_Apr2012">
        <viz:size value="8"/>
    </node>
    <node id="HU45M_SRF_April2013" label="HU45M_SRF_April2013">
        <viz:size value="8"/>
    </node>
    <node id="HU45M_SRF_Aug2012" label="HU45M_SRF_Aug2012">
        <viz:size value="8"/>
    </node>
    <node id="HU54M_B10_April2013" label="HU54M_B10_April2013">
        <viz:size value="8"/>
    </node>
    <node id="HU54M_B10_Aug2012" label="HU54M_B10_Aug2012">
        <viz:size value="8"/>
    </node>
    <node id="HU54M_B10_Aug2013" label="HU54M_B10_Aug2013">
        <viz:size value="8"/>
    </node>
    <node id="HU54M_DCL_Aug2012" label="HU54M_DCL_Aug2012">
        <viz:size value="8"/>
    </node>
    <node id="HU54M_MHY_Aug2012" label="HU54M_MHY_Aug2012">
        <viz:size value="8"/>
    </node>
    <node id="HU54M_MID_April2013" label="HU54M_MID_April2013">
        <viz:size value="8"/>
    </node>
    <node id="HU54M_SRF_April2013" label="HU54M_SRF_April2013">
        <viz:size value="8"/>
    </node>
    <node id="LakeGuardian_ShipWater1" label="LakeGuardian_ShipWater1">
        <viz:size value="8"/>
    </node>
    <node id="LakeGuardian_ShipWater2" label="LakeGuardian_ShipWater2">
        <viz:size value="8"/>
    </node>
    <node id="MI18M_B10_April2013" label="MI18M_B10_April2013">
        <viz:size value="8"/>
    </node>
    <node id="MI18M_B10_Aug2012" label="MI18M_B10_Aug2012">
        <viz:size value="8"/>
    </node>
    <node id="MI18M_B10_Aug2013" label="MI18M_B10_Aug2013">
        <viz:size value="8"/>
    </node>
    <node id="MI18M_DCL_Aug2013" label="MI18M_DCL_Aug2013">
        <viz:size value="8"/>
    </node>
    <node id="MI18M_MHY_Aug2012" label="MI18M_MHY_Aug2012">
        <viz:size value="8"/>
    </node>
    <node id="MI18M_MHY_Aug2013" label="MI18M_MHY_Aug2013">
        <viz:size value="8"/>
    </node>
    <node id="MI18M_MID_April2013" label="MI18M_MID_April2013">
        <viz:size value="8"/>
    </node>
    <node id="MI18M_SRF_April2013" label="MI18M_SRF_April2013">
        <viz:size value="8"/>
    </node>
    <node id="MI18M_SRF_Aug2012" label="MI18M_SRF_Aug2012">
        <viz:size value="8"/>
    </node>
    <node id="MI27M_B10_April2013" label="MI27M_B10_April2013">
        <viz:size value="8"/>
    </node>
    <node id="MI27M_B10_Aug2012" label="MI27M_B10_Aug2012">
        <viz:size value="8"/>
    </node>
    <node id="MI27M_B10_Aug2013" label="MI27M_B10_Aug2013">
        <viz:size value="8"/>
    </node>
    <node id="MI27M_DCL_Aug2012" label="MI27M_DCL_Aug2012">
        <viz:size value="8"/>
    </node>
    <node id="MI27M_DCL_Aug2013" label="MI27M_DCL_Aug2013">
        <viz:size value="8"/>
    </node>
    <node id="MI27M_MHY_Aug2012" label="MI27M_MHY_Aug2012">
        <viz:size value="8"/>
    </node>
    <node id="MI27M_MHY_Aug2013" label="MI27M_MHY_Aug2013">
        <viz:size value="8"/>
    </node>
    <node id="MI27M_MID_April2013" label="MI27M_MID_April2013">
        <viz:size value="8"/>
    </node>
    <node id="MI27M_SRF_Apr2012" label="MI27M_SRF_Apr2012">
        <viz:size value="8"/>
    </node>
    <node id="MI27M_SRF_April2013" label="MI27M_SRF_April2013">
        <viz:size value="8"/>
    </node>
    <node id="MI27M_SRF_Aug2012" label="MI27M_SRF_Aug2012">
        <viz:size value="8"/>
    </node>
    <node id="MI40_B10_Aug2015" label="MI40_B10_Aug2015">
        <viz:size value="8"/>
    </node>
    <node id="MI40_DCL_Aug2015" label="MI40_DCL_Aug2015">
        <viz:size value="8"/>
    </node>
    <node id="MI40_MHY_Aug2015" label="MI40_MHY_Aug2015">
        <viz:size value="8"/>
    </node>
    <node id="MI40_SRF_Aug2015" label="MI40_SRF_Aug2015">
        <viz:size value="8"/>
    </node>
    <node id="MI41M_B10_1L_Aug2015" label="MI41M_B10_1L_Aug2015">
        <viz:size value="8"/>
    </node>
    <node id="MI41M_B10_April2013" label="MI41M_B10_April2013">
        <viz:size value="8"/>
    </node>
    <node id="MI41M_B10_Aug2012" label="MI41M_B10_Aug2012">
        <viz:size value="8"/>
    </node>
    <node id="MI41M_B10_Aug2013" label="MI41M_B10_Aug2013">
        <viz:size value="8"/>
    </node>
    <node id="MI41M_B10_Aug2015" label="MI41M_B10_Aug2015">
        <viz:size value="8"/>
    </node>
    <node id="MI41M_DCL_1L_Aug2015" label="MI41M_DCL_1L_Aug2015">
        <viz:size value="8"/>
    </node>
    <node id="MI41M_DCL_Aug2012" label="MI41M_DCL_Aug2012">
        <viz:size value="8"/>
    </node>
    <node id="MI41M_DCL_Aug2013" label="MI41M_DCL_Aug2013">
        <viz:size value="8"/>
    </node>
    <node id="MI41M_DCL_Aug2015" label="MI41M_DCL_Aug2015">
        <viz:size value="8"/>
    </node>
    <node id="MI41M_MHY_1L_Aug2015" label="MI41M_MHY_1L_Aug2015">
        <viz:size value="8"/>
    </node>
    <node id="MI41M_MHY_Aug2012" label="MI41M_MHY_Aug2012">
        <viz:size value="8"/>
    </node>
    <node id="MI41M_MHY_Aug2013" label="MI41M_MHY_Aug2013">
        <viz:size value="8"/>
    </node>
    <node id="MI41M_MHY_Aug2015" label="MI41M_MHY_Aug2015">
        <viz:size value="8"/>
    </node>
    <node id="MI41M_MID_April2013" label="MI41M_MID_April2013">
        <viz:size value="8"/>
    </node>
    <node id="MI41M_SRF_April2013" label="MI41M_SRF_April2013">
        <viz:size value="8"/>
    </node>
    <node id="MIFO_B10_Aug2015" label="MIFO_B10_Aug2015">
        <viz:size value="8"/>
    </node>
    <node id="MIFO_DCL_Aug2015" label="MIFO_DCL_Aug2015">
        <viz:size value="8"/>
    </node>
    <node id="MIFO_MHY_Aug2015" label="MIFO_MHY_Aug2015">
        <viz:size value="8"/>
    </node>
    <node id="MIFO_SRF_Aug2015" label="MIFO_SRF_Aug2015">
        <viz:size value="8"/>
    </node>
    <node id="ON33M_B10_April2013" label="ON33M_B10_April2013">
        <viz:size value="8"/>
    </node>
    <node id="ON33M_B10_Aug2012" label="ON33M_B10_Aug2012">
        <viz:size value="8"/>
    </node>
    <node id="ON33M_B10_Aug2013" label="ON33M_B10_Aug2013">
        <viz:size value="8"/>
    </node>
    <node id="ON33M_DCL_Aug2013" label="ON33M_DCL_Aug2013">
        <viz:size value="8"/>
    </node>
    <node id="ON33M_LEP_Aug2012" label="ON33M_LEP_Aug2012">
        <viz:size value="8"/>
    </node>
    <node id="ON33M_MHY_Aug2012" label="ON33M_MHY_Aug2012">
        <viz:size value="8"/>
    </node>
    <node id="ON33M_MHY_Aug2013" label="ON33M_MHY_Aug2013">
        <viz:size value="8"/>
    </node>
    <node id="ON33M_MID_April2013" label="ON33M_MID_April2013">
        <viz:size value="8"/>
    </node>
    <node id="ON33M_SRF_Apr2012" label="ON33M_SRF_Apr2012">
        <viz:size value="8"/>
    </node>
    <node id="ON33M_SRF_April2013" label="ON33M_SRF_April2013">
        <viz:size value="8"/>
    </node>
    <node id="ON33M_SRF_Aug2012" label="ON33M_SRF_Aug2012">
        <viz:size value="8"/>
    </node>
    <node id="ON55M_B10_April2013" label="ON55M_B10_April2013">
        <viz:size value="8"/>
    </node>
    <node id="ON55M_B10_Aug2012" label="ON55M_B10_Aug2012">
        <viz:size value="8"/>
    </node>
    <node id="ON55M_B10_Aug2013" label="ON55M_B10_Aug2013">
        <viz:size value="8"/>
    </node>
    <node id="ON55M_DCL_Aug2013" label="ON55M_DCL_Aug2013">
        <viz:size value="8"/>
    </node>
    <node id="ON55M_MHY_Aug2012" label="ON55M_MHY_Aug2012">
        <viz:size value="8"/>
    </node>
    <node id="ON55M_MHY_Aug2013" label="ON55M_MHY_Aug2013">
        <viz:size value="8"/>
    </node>
    <node id="ON55M_MID_April2013" label="ON55M_MID_April2013">
        <viz:size value="8"/>
    </node>
    <node id="ON55M_SRF_April2013" label="ON55M_SRF_April2013">
        <viz:size value="8"/>
    </node>
    <node id="ON68b_B10_Aug2012" label="ON68b_B10_Aug2012">
        <viz:size value="8"/>
    </node>
    <node id="ON68b_SRF_Aug2013" label="ON68b_SRF_Aug2013">
        <viz:size value="8"/>
    </node>
    <node id="SU01M_B10_April2013" label="SU01M_B10_April2013">
        <viz:size value="8"/>
    </node>
    <node id="SU01M_B10_Aug2012" label="SU01M_B10_Aug2012">
        <viz:size value="8"/>
    </node>
    <node id="SU01M_B10_Aug2013" label="SU01M_B10_Aug2013">
        <viz:size value="8"/>
    </node>
    <node id="SU01M_DCL_Aug2012" label="SU01M_DCL_Aug2012">
        <viz:size value="8"/>
    </node>
    <node id="SU01M_DCL_Aug2013" label="SU01M_DCL_Aug2013">
        <viz:size value="8"/>
    </node>
    <node id="SU01M_MHY_Aug2012" label="SU01M_MHY_Aug2012">
        <viz:size value="8"/>
    </node>
    <node id="SU01M_MHY_Aug2013" label="SU01M_MHY_Aug2013">
        <viz:size value="8"/>
    </node>
    <node id="SU01M_MID_April2013" label="SU01M_MID_April2013">
        <viz:size value="8"/>
    </node>
    <node id="SU01M_SRF_April2013" label="SU01M_SRF_April2013">
        <viz:size value="8"/>
    </node>
    <node id="SU01M_SRF_Aug2012" label="SU01M_SRF_Aug2012">
        <viz:size value="8"/>
    </node>
    <node id="SU08M_B10_April2013" label="SU08M_B10_April2013">
        <viz:size value="8"/>
    </node>
    <node id="SU08M_B10_Aug2012" label="SU08M_B10_Aug2012">
        <viz:size value="8"/>
    </node>
    <node id="SU08M_B10_Aug2013" label="SU08M_B10_Aug2013">
        <viz:size value="8"/>
    </node>
    <node id="SU08M_DCL_Aug2012" label="SU08M_DCL_Aug2012">
        <viz:size value="8"/>
    </node>
    <node id="SU08M_DCL_Aug2013" label="SU08M_DCL_Aug2013">
        <viz:size value="8"/>
    </node>
    <node id="SU08M_MHY_Aug2012" label="SU08M_MHY_Aug2012">
        <viz:size value="8"/>
    </node>
    <node id="SU08M_MHY_Aug2013" label="SU08M_MHY_Aug2013">
        <viz:size value="8"/>
    </node>
    <node id="SU08M_MID_April2013" label="SU08M_MID_April2013">
        <viz:size value="8"/>
    </node>
    <node id="SU08M_SRF_Apr2012" label="SU08M_SRF_Apr2012">
        <viz:size value="8"/>
    </node>
    <node id="SU08M_SRF_April2013" label="SU08M_SRF_April2013">
        <viz:size value="8"/>
    </node>
    <node id="SU08M_SRF_Aug2012" label="SU08M_SRF_Aug2012">
        <viz:size value="8"/>
    </node>
    <node id="SU08M_SRF_Aug2013" label="SU08M_SRF_Aug2013">
        <viz:size value="8"/>
    </node>
    <node id="SU17M_B10_April2013" label="SU17M_B10_April2013">
        <viz:size value="8"/>
    </node>
    <node id="SU17M_B10_Aug2013" label="SU17M_B10_Aug2013">
        <viz:size value="8"/>
    </node>
    <node id="SU17M_MHY_Aug2013" label="SU17M_MHY_Aug2013">
        <viz:size value="8"/>
    </node>
    <node id="SU17M_MID_April2013" label="SU17M_MID_April2013">
        <viz:size value="8"/>
    </node>
    <node id="SU17M_SRF_April2013" label="SU17M_SRF_April2013">
        <viz:size value="8"/>
    </node>
    <node id="SU18_B10_Aug2012" label="SU18_B10_Aug2012">
        <viz:size value="8"/>
    </node>
    <node id="SU18_B10_Aug2013" label="SU18_B10_Aug2013">
        <viz:size value="8"/>
    </node>
    <node id="SU18_DCL_Aug2012" label="SU18_DCL_Aug2012">
        <viz:size value="8"/>
    </node>
    <node id="SU18_DCL_Aug2013" label="SU18_DCL_Aug2013">
        <viz:size value="8"/>
    </node>
    <node id="SU18_MHY_Aug2012" label="SU18_MHY_Aug2012">
        <viz:size value="8"/>
    </node>
    <node id="SU18_MHY_Aug2013" label="SU18_MHY_Aug2013">
        <viz:size value="8"/>
    </node>
    <node id="SU18_SRF_Aug2012" label="SU18_SRF_Aug2012">
        <viz:size value="8"/>
    </node>
    <node id="SU18_SRF_Aug2013" label="SU18_SRF_Aug2013">
        <viz:size value="8"/>
    </node>
    <node id="C">
        <viz:size value="2" />
    </node>
    <node id="T">
        <viz:size value="2" />
    </node>
</nodes>
<edges>
    <edge id="0" source="C" target="ER15M_Bminus_Aug2012" weight="100.000000" />
    <edge id="1" source="C" target="ER15M_Bminus_Aug2013" weight="100.000000" />
    <edge id="2" source="C" target="ER15M_DCL_Aug2013" weight="100.000000" />
    <edge id="3" source="C" target="ER15M_LEP_Aug2012" weight="100.000000" />
    <edge id="4" source="C" target="ER15M_MHY_Aug2012" weight="100.000000" />
    <edge id="5" source="C" target="ER15M_MHY_Aug2013" weight="100.000000" />
    <edge id="6" source="C" target="ER15M_MID_April2013" weight="100.000000" />
    <edge id="7" source="C" target="ER15M_SRF_Apr2012" weight="100.000000" />
    <edge id="8" source="C" target="ER78M_Bminus_Aug2012" weight="100.000000" />
    <edge id="9" source="C" target="ER78M_Bminus_Aug2013" weight="100.000000" />
    <edge id="10" source="C" target="ER78M_LEP_Aug2012" weight="100.000000" />
    <edge id="11" source="C" target="ER78M_LEP_Aug2013" weight="50.000000" />
    <edge id="12" source="T" target="ER78M_LEP_Aug2013" weight="50.000000" />
    <edge id="13" source="C" target="ER78M_SRF_Aug2012" weight="100.000000" />
    <edge id="14" source="C" target="ER78M_SRF_Aug2013" weight="100.000000" />
    <edge id="15" source="C" target="ER91M_Bminus_April2013" weight="100.000000" />
    <edge id="16" source="C" target="ER91M_Bminus_Aug2012" weight="100.000000" />
    <edge id="17" source="C" target="ER91M_Bminus_Aug2013" weight="100.000000" />
    <edge id="18" source="C" target="ER91M_MEP_Aug2012" weight="100.000000" />
    <edge id="19" source="C" target="ER91M_MEP_Aug2013" weight="75.000000" />
    <edge id="20" source="T" target="ER91M_MEP_Aug2013" weight="25.000000" />
    <edge id="21" source="C" target="ER91M_MID_April2013" weight="66.666667" />
    <edge id="22" source="T" target="ER91M_MID_April2013" weight="33.333333" />
    <edge id="23" source="C" target="ER91M_SRF_Aug2012" weight="100.000000" />
    <edge id="24" source="C" target="ER91M_SRF_Aug2013" weight="100.000000" />
    <edge id="25" source="C" target="HU15M_B10_April2013" weight="97.500000" />
    <edge id="26" source="T" target="HU15M_B10_April2013" weight="2.500000" />
    <edge id="27" source="C" target="HU15M_B10_Aug2012" weight="100.000000" />
    <edge id="28" source="C" target="HU15M_B10_Aug2013" weight="100.000000" />
    <edge id="29" source="C" target="HU15M_MHY_Aug2013" weight="100.000000" />
    <edge id="30" source="C" target="HU15M_MID_April2013" weight="100.000000" />
    <edge id="31" source="C" target="HU15M_SRF_April2013" weight="83.333333" />
    <edge id="32" source="T" target="HU15M_SRF_April2013" weight="16.666667" />
    <edge id="33" source="C" target="HU15M_TRM_Aug2013" weight="100.000000" />
    <edge id="34" source="C" target="HU45M_B10_April2013" weight="95.454545" />
    <edge id="35" source="T" target="HU45M_B10_April2013" weight="4.545455" />
    <edge id="36" source="C" target="HU45M_B10_Aug2012" weight="94.549763" />
    <edge id="37" source="T" target="HU45M_B10_Aug2012" weight="5.450237" />
    <edge id="38" source="C" target="HU45M_B10_Aug2013" weight="100.000000" />
    <edge id="39" source="C" target="HU45M_DCL_Aug2012" weight="66.666667" />
    <edge id="40" source="T" target="HU45M_DCL_Aug2012" weight="33.333333" />
    <edge id="41" source="C" target="HU45M_MHY_Aug2012" weight="96.551724" />
    <edge id="42" source="T" target="HU45M_MHY_Aug2012" weight="3.448276" />
    <edge id="43" source="C" target="HU45M_MHY_Aug2013" weight="92.307692" />
    <edge id="44" source="T" target="HU45M_MHY_Aug2013" weight="7.692308" />
    <edge id="45" source="C" target="HU45M_MID_April2013" weight="94.408602" />
    <edge id="46" source="T" target="HU45M_MID_April2013" weight="5.591398" />
    <edge id="47" source="C" target="HU45M_SRF_Apr2012" weight="100.000000" />
    <edge id="48" source="C" target="HU45M_SRF_April2013" weight="94.925373" />
    <edge id="49" source="T" target="HU45M_SRF_April2013" weight="5.074627" />
    <edge id="50" source="C" target="HU45M_SRF_Aug2012" weight="100.000000" />
    <edge id="51" source="C" target="HU54M_B10_April2013" weight="94.581281" />
    <edge id="52" source="T" target="HU54M_B10_April2013" weight="5.418719" />
    <edge id="53" source="C" target="HU54M_B10_Aug2012" weight="96.913580" />
    <edge id="54" source="T" target="HU54M_B10_Aug2012" weight="3.086420" />
    <edge id="55" source="C" target="HU54M_B10_Aug2013" weight="100.000000" />
    <edge id="56" source="C" target="HU54M_DCL_Aug2012" weight="92.000000" />
    <edge id="57" source="T" target="HU54M_DCL_Aug2012" weight="8.000000" />
    <edge id="58" source="C" target="HU54M_MHY_Aug2012" weight="96.039604" />
    <edge id="59" source="T" target="HU54M_MHY_Aug2012" weight="3.960396" />
    <edge id="60" source="C" target="HU54M_MID_April2013" weight="95.857988" />
    <edge id="61" source="T" target="HU54M_MID_April2013" weight="4.142012" />
    <edge id="62" source="C" target="HU54M_SRF_April2013" weight="94.019934" />
    <edge id="63" source="T" target="HU54M_SRF_April2013" weight="5.980066" />
    <edge id="64" source="C" target="LakeGuardian_ShipWater1" weight="100.000000" />
    <edge id="65" source="C" target="LakeGuardian_ShipWater2" weight="100.000000" />
    <edge id="66" source="C" target="MI18M_B10_April2013" weight="95.860566" />
    <edge id="67" source="T" target="MI18M_B10_April2013" weight="4.139434" />
    <edge id="68" source="C" target="MI18M_B10_Aug2012" weight="94.776119" />
    <edge id="69" source="T" target="MI18M_B10_Aug2012" weight="5.223881" />
    <edge id="70" source="C" target="MI18M_B10_Aug2013" weight="94.987971" />
    <edge id="71" source="T" target="MI18M_B10_Aug2013" weight="5.012029" />
    <edge id="72" source="C" target="MI18M_DCL_Aug2013" weight="100.000000" />
    <edge id="73" source="C" target="MI18M_MHY_Aug2012" weight="97.402597" />
    <edge id="74" source="T" target="MI18M_MHY_Aug2012" weight="2.597403" />
    <edge id="75" source="C" target="MI18M_MHY_Aug2013" weight="96.350365" />
    <edge id="76" source="T" target="MI18M_MHY_Aug2013" weight="3.649635" />
    <edge id="77" source="C" target="MI18M_MID_April2013" weight="96.597633" />
    <edge id="78" source="T" target="MI18M_MID_April2013" weight="3.402367" />
    <edge id="79" source="C" target="MI18M_SRF_April2013" weight="95.895522" />
    <edge id="80" source="T" target="MI18M_SRF_April2013" weight="4.104478" />
    <edge id="81" source="C" target="MI18M_SRF_Aug2012" weight="100.000000" />
    <edge id="82" source="C" target="MI27M_B10_April2013" weight="96.959459" />
    <edge id="83" source="T" target="MI27M_B10_April2013" weight="3.040541" />
    <edge id="84" source="C" target="MI27M_B10_Aug2012" weight="95.238095" />
    <edge id="85" source="T" target="MI27M_B10_Aug2012" weight="4.761905" />
    <edge id="86" source="C" target="MI27M_B10_Aug2013" weight="90.277778" />
    <edge id="87" source="T" target="MI27M_B10_Aug2013" weight="9.722222" />
    <edge id="88" source="C" target="MI27M_DCL_Aug2012" weight="100.000000" />
    <edge id="89" source="C" target="MI27M_DCL_Aug2013" weight="100.000000" />
    <edge id="90" source="C" target="MI27M_MHY_Aug2012" weight="100.000000" />
    <edge id="91" source="C" target="MI27M_MHY_Aug2013" weight="50.000000" />
    <edge id="92" source="T" target="MI27M_MHY_Aug2013" weight="50.000000" />
    <edge id="93" source="C" target="MI27M_MID_April2013" weight="95.203837" />
    <edge id="94" source="T" target="MI27M_MID_April2013" weight="4.796163" />
    <edge id="95" source="C" target="MI27M_SRF_Apr2012" weight="88.888889" />
    <edge id="96" source="T" target="MI27M_SRF_Apr2012" weight="11.111111" />
    <edge id="97" source="C" target="MI27M_SRF_April2013" weight="95.135135" />
    <edge id="98" source="T" target="MI27M_SRF_April2013" weight="4.864865" />
    <edge id="99" source="C" target="MI27M_SRF_Aug2012" weight="100.000000" />
    <edge id="100" source="C" target="MI40_B10_Aug2015" weight="95.019920" />
    <edge id="101" source="T" target="MI40_B10_Aug2015" weight="4.980080" />
    <edge id="102" source="C" target="MI40_DCL_Aug2015" weight="95.689655" />
    <edge id="103" source="T" target="MI40_DCL_Aug2015" weight="4.310345" />
    <edge id="104" source="C" target="MI40_MHY_Aug2015" weight="94.609665" />
    <edge id="105" source="T" target="MI40_MHY_Aug2015" weight="5.390335" />
    <edge id="106" source="C" target="MI40_SRF_Aug2015" weight="100.000000" />
    <edge id="107" source="C" target="MI41M_B10_1L_Aug2015" weight="95.127119" />
    <edge id="108" source="T" target="MI41M_B10_1L_Aug2015" weight="4.872881" />
    <edge id="109" source="C" target="MI41M_B10_April2013" weight="96.476510" />
    <edge id="110" source="T" target="MI41M_B10_April2013" weight="3.523490" />
    <edge id="111" source="C" target="MI41M_B10_Aug2012" weight="94.684732" />
    <edge id="112" source="T" target="MI41M_B10_Aug2012" weight="5.315268" />
    <edge id="113" source="C" target="MI41M_B10_Aug2013" weight="94.798762" />
    <edge id="114" source="T" target="MI41M_B10_Aug2013" weight="5.201238" />
    <edge id="115" source="C" target="MI41M_B10_Aug2015" weight="94.582185" />
    <edge id="116" source="T" target="MI41M_B10_Aug2015" weight="5.417815" />
    <edge id="117" source="C" target="MI41M_DCL_1L_Aug2015" weight="95.384615" />
    <edge id="118" source="T" target="MI41M_DCL_1L_Aug2015" weight="4.615385" />
    <edge id="119" source="C" target="MI41M_DCL_Aug2012" weight="100.000000" />
    <edge id="120" source="C" target="MI41M_DCL_Aug2013" weight="100.000000" />
    <edge id="121" source="C" target="MI41M_DCL_Aug2015" weight="95.833333" />
    <edge id="122" source="T" target="MI41M_DCL_Aug2015" weight="4.166667" />
    <edge id="123" source="C" target="MI41M_MHY_1L_Aug2015" weight="94.680851" />
    <edge id="124" source="T" target="MI41M_MHY_1L_Aug2015" weight="5.319149" />
    <edge id="125" source="C" target="MI41M_MHY_Aug2012" weight="94.354839" />
    <edge id="126" source="T" target="MI41M_MHY_Aug2012" weight="5.645161" />
    <edge id="127" source="C" target="MI41M_MHY_Aug2013" weight="94.704179" />
    <edge id="128" source="T" target="MI41M_MHY_Aug2013" weight="5.295821" />
    <edge id="129" source="C" target="MI41M_MHY_Aug2015" weight="95.986622" />
    <edge id="130" source="T" target="MI41M_MHY_Aug2015" weight="4.013378" />
    <edge id="131" source="C" target="MI41M_MID_April2013" weight="94.413408" />
    <edge id="132" source="T" target="MI41M_MID_April2013" weight="5.586592" />
    <edge id="133" source="C" target="MI41M_SRF_April2013" weight="93.948413" />
    <edge id="134" source="T" target="MI41M_SRF_April2013" weight="6.051587" />
    <edge id="135" source="C" target="MIFO_B10_Aug2015" weight="94.612795" />
    <edge id="136" source="T" target="MIFO_B10_Aug2015" weight="5.387205" />
    <edge id="137" source="C" target="MIFO_DCL_Aug2015" weight="95.495495" />
    <edge id="138" source="T" target="MIFO_DCL_Aug2015" weight="4.504505" />
    <edge id="139" source="C" target="MIFO_MHY_Aug2015" weight="94.682836" />
    <edge id="140" source="T" target="MIFO_MHY_Aug2015" weight="5.317164" />
    <edge id="141" source="C" target="MIFO_SRF_Aug2015" weight="100.000000" />
    <edge id="142" source="C" target="ON33M_B10_April2013" weight="97.619048" />
    <edge id="143" source="T" target="ON33M_B10_April2013" weight="2.380952" />
    <edge id="144" source="C" target="ON33M_B10_Aug2012" weight="94.322214" />
    <edge id="145" source="T" target="ON33M_B10_Aug2012" weight="5.677786" />
    <edge id="146" source="C" target="ON33M_B10_Aug2013" weight="95.291777" />
    <edge id="147" source="T" target="ON33M_B10_Aug2013" weight="4.708223" />
    <edge id="148" source="C" target="ON33M_DCL_Aug2013" weight="100.000000" />
    <edge id="149" source="C" target="ON33M_LEP_Aug2012" weight="100.000000" />
    <edge id="150" source="C" target="ON33M_MHY_Aug2012" weight="94.183865" />
    <edge id="151" source="T" target="ON33M_MHY_Aug2012" weight="5.816135" />
    <edge id="152" source="C" target="ON33M_MHY_Aug2013" weight="94.293298" />
    <edge id="153" source="T" target="ON33M_MHY_Aug2013" weight="5.706702" />
    <edge id="154" source="C" target="ON33M_MID_April2013" weight="93.609672" />
    <edge id="155" source="T" target="ON33M_MID_April2013" weight="6.390328" />
    <edge id="156" source="C" target="ON33M_SRF_Apr2012" weight="96.078431" />
    <edge id="157" source="T" target="ON33M_SRF_Apr2012" weight="3.921569" />
    <edge id="158" source="C" target="ON33M_SRF_April2013" weight="93.863636" />
    <edge id="159" source="T" target="ON33M_SRF_April2013" weight="6.136364" />
    <edge id="160" source="C" target="ON33M_SRF_Aug2012" weight="66.666667" />
    <edge id="161" source="T" target="ON33M_SRF_Aug2012" weight="33.333333" />
    <edge id="162" source="C" target="ON55M_B10_April2013" weight="96.721311" />
    <edge id="163" source="T" target="ON55M_B10_April2013" weight="3.278689" />
    <edge id="164" source="C" target="ON55M_B10_Aug2012" weight="94.363257" />
    <edge id="165" source="T" target="ON55M_B10_Aug2012" weight="5.636743" />
    <edge id="166" source="C" target="ON55M_B10_Aug2013" weight="94.883485" />
    <edge id="167" source="T" target="ON55M_B10_Aug2013" weight="5.116515" />
    <edge id="168" source="C" target="ON55M_DCL_Aug2013" weight="100.000000" />
    <edge id="169" source="C" target="ON55M_MHY_Aug2012" weight="95.374878" />
    <edge id="170" source="T" target="ON55M_MHY_Aug2012" weight="4.625122" />
    <edge id="171" source="C" target="ON55M_MHY_Aug2013" weight="94.985673" />
    <edge id="172" source="T" target="ON55M_MHY_Aug2013" weight="5.014327" />
    <edge id="173" source="C" target="ON55M_MID_April2013" weight="94.047619" />
    <edge id="174" source="T" target="ON55M_MID_April2013" weight="5.952381" />
    <edge id="175" source="C" target="ON55M_SRF_April2013" weight="96.551724" />
    <edge id="176" source="T" target="ON55M_SRF_April2013" weight="3.448276" />
    <edge id="177" source="C" target="ON68b_B10_Aug2012" weight="100.000000" />
    <edge id="178" source="C" target="ON68b_SRF_Aug2013" weight="100.000000" />
    <edge id="179" source="C" target="SU01M_B10_April2013" weight="95.491329" />
    <edge id="180" source="T" target="SU01M_B10_April2013" weight="4.508671" />
    <edge id="181" source="C" target="SU01M_B10_Aug2012" weight="95.265487" />
    <edge id="182" source="T" target="SU01M_B10_Aug2012" weight="4.734513" />
    <edge id="183" source="C" target="SU01M_B10_Aug2013" weight="95.833333" />
    <edge id="184" source="T" target="SU01M_B10_Aug2013" weight="4.166667" />
    <edge id="185" source="C" target="SU01M_DCL_Aug2012" weight="95.238095" />
    <edge id="186" source="T" target="SU01M_DCL_Aug2012" weight="4.761905" />
    <edge id="187" source="C" target="SU01M_DCL_Aug2013" weight="90.243902" />
    <edge id="188" source="T" target="SU01M_DCL_Aug2013" weight="9.756098" />
    <edge id="189" source="C" target="SU01M_MHY_Aug2012" weight="95.411850" />
    <edge id="190" source="T" target="SU01M_MHY_Aug2012" weight="4.588150" />
    <edge id="191" source="C" target="SU01M_MHY_Aug2013" weight="95.299145" />
    <edge id="192" source="T" target="SU01M_MHY_Aug2013" weight="4.700855" />
    <edge id="193" source="C" target="SU01M_MID_April2013" weight="95.744681" />
    <edge id="194" source="T" target="SU01M_MID_April2013" weight="4.255319" />
    <edge id="195" source="C" target="SU01M_SRF_April2013" weight="93.023256" />
    <edge id="196" source="T" target="SU01M_SRF_April2013" weight="6.976744" />
    <edge id="197" source="C" target="SU01M_SRF_Aug2012" weight="100.000000" />
    <edge id="198" source="C" target="SU08M_B10_April2013" weight="94.934693" />
    <edge id="199" source="T" target="SU08M_B10_April2013" weight="5.065307" />
    <edge id="200" source="C" target="SU08M_B10_Aug2012" weight="94.888428" />
    <edge id="201" source="T" target="SU08M_B10_Aug2012" weight="5.111572" />
    <edge id="202" source="C" target="SU08M_B10_Aug2013" weight="95.555556" />
    <edge id="203" source="T" target="SU08M_B10_Aug2013" weight="4.444444" />
    <edge id="204" source="C" target="SU08M_DCL_Aug2012" weight="97.260274" />
    <edge id="205" source="T" target="SU08M_DCL_Aug2012" weight="2.739726" />
    <edge id="206" source="C" target="SU08M_DCL_Aug2013" weight="100.000000" />
    <edge id="207" source="C" target="SU08M_MHY_Aug2012" weight="94.919591" />
    <edge id="208" source="T" target="SU08M_MHY_Aug2012" weight="5.080409" />
    <edge id="209" source="C" target="SU08M_MHY_Aug2013" weight="93.000000" />
    <edge id="210" source="T" target="SU08M_MHY_Aug2013" weight="7.000000" />
    <edge id="211" source="C" target="SU08M_MID_April2013" weight="93.663060" />
    <edge id="212" source="T" target="SU08M_MID_April2013" weight="6.336940" />
    <edge id="213" source="C" target="SU08M_SRF_Apr2012" weight="91.139241" />
    <edge id="214" source="T" target="SU08M_SRF_Apr2012" weight="8.860759" />
    <edge id="215" source="C" target="SU08M_SRF_April2013" weight="94.952328" />
    <edge id="216" source="T" target="SU08M_SRF_April2013" weight="5.047672" />
    <edge id="217" source="C" target="SU08M_SRF_Aug2012" weight="100.000000" />
    <edge id="218" source="C" target="SU08M_SRF_Aug2013" weight="100.000000" />
    <edge id="219" source="C" target="SU17M_B10_April2013" weight="95.128205" />
    <edge id="220" source="T" target="SU17M_B10_April2013" weight="4.871795" />
    <edge id="221" source="C" target="SU17M_B10_Aug2013" weight="100.000000" />
    <edge id="222" source="C" target="SU17M_MHY_Aug2013" weight="91.666667" />
    <edge id="223" source="T" target="SU17M_MHY_Aug2013" weight="8.333333" />
    <edge id="224" source="C" target="SU17M_MID_April2013" weight="95.163105" />
    <edge id="225" source="T" target="SU17M_MID_April2013" weight="4.836895" />
    <edge id="226" source="C" target="SU17M_SRF_April2013" weight="91.869919" />
    <edge id="227" source="T" target="SU17M_SRF_April2013" weight="8.130081" />
    <edge id="228" source="C" target="SU18_B10_Aug2012" weight="94.761905" />
    <edge id="229" source="T" target="SU18_B10_Aug2012" weight="5.238095" />
    <edge id="230" source="C" target="SU18_B10_Aug2013" weight="96.666667" />
    <edge id="231" source="T" target="SU18_B10_Aug2013" weight="3.333333" />
    <edge id="232" source="C" target="SU18_DCL_Aug2012" weight="100.000000" />
    <edge id="233" source="C" target="SU18_DCL_Aug2013" weight="95.522388" />
    <edge id="234" source="T" target="SU18_DCL_Aug2013" weight="4.477612" />
    <edge id="235" source="C" target="SU18_MHY_Aug2012" weight="93.822394" />
    <edge id="236" source="T" target="SU18_MHY_Aug2012" weight="6.177606" />
    <edge id="237" source="C" target="SU18_MHY_Aug2013" weight="94.063927" />
    <edge id="238" source="T" target="SU18_MHY_Aug2013" weight="5.936073" />
    <edge id="239" source="C" target="SU18_SRF_Aug2012" weight="100.000000" />
    <edge id="240" source="C" target="SU18_SRF_Aug2013" weight="100.000000" />
</edges>
</graph>
</gexf>
