samples	AATGATGAC	AACGATGAC	AATAGCGAC	AATGATGAA	GATGATGAC	TATGATGAC	AATGACGAC	AATAGTGAC	AACAGCGAC
ER15M_Bminus_Aug2012	2	0	0	0	0	0	0	0	0
ER15M_Bminus_Aug2013	1	0	0	0	0	0	0	0	0
ER15M_MHY_Aug2012	1	0	0	0	0	0	0	0	0
ER15M_MHY_Aug2013	3	0	0	0	0	0	0	0	0
ER15M_SRF_Apr2012	0	0	0	0	1	0	0	0	0
ER78M_Bminus_Aug2012	1	1	0	0	0	0	0	0	0
ER78M_Bminus_Aug2013	7	2	0	0	0	0	0	0	0
ER78M_MHY_Aug2012	2	0	0	0	0	0	0	0	0
ER78M_SRF_Apr2012	1	0	0	0	0	0	0	0	0
ER91M_Bminus_April2013	9	0	0	0	0	0	0	0	0
ER91M_Bminus_Aug2012	4	0	0	0	0	0	0	0	0
ER91M_MEP_Aug2012	5	0	0	0	0	0	0	0	0
ER91M_MEP_Aug2013	3	0	0	0	0	0	0	0	0
ER91M_MID_April2013	8	1	0	0	0	0	0	0	0
ER91M_SRF_April2013	1	0	0	0	0	0	0	0	0
ER91M_SRF_Aug2012	8	1	0	0	0	0	0	0	0
HU15M_B10_April2013	3	0	0	0	0	0	0	0	0
HU15M_B10_Aug2012	3	1	0	0	0	0	0	0	0
HU15M_B10_Aug2013	2	0	0	0	0	0	0	0	0
HU15M_MHY_Aug2012	2	0	0	0	0	0	0	0	0
HU15M_MHY_Aug2013	1	0	0	0	0	0	0	0	0
HU15M_SRF_April2013	3	0	0	1	0	0	0	0	0
HU15M_SRF_Aug2012	1	0	0	0	0	0	0	0	0
HU15M_TRM_Aug2012	1	0	0	0	0	0	0	0	0
HU45M_B10_April2013	1	0	0	0	0	0	0	0	0
HU45M_B10_Aug2012	5	0	0	0	0	0	0	0	0
HU45M_MHY_Aug2012	2	0	0	0	0	0	0	0	0
HU45M_MHY_Aug2013	1	0	0	0	0	0	0	0	0
HU45M_MID_April2013	4	0	0	0	0	0	0	0	0
HU45M_SRF_April2013	2	0	0	0	0	0	0	0	0
HU45M_SRF_Aug2012	0	0	1	0	0	0	0	0	0
HU54M_B10_April2013	1	0	0	0	0	0	0	0	0
HU54M_B10_Aug2012	8	1	0	0	0	0	0	0	0
HU54M_MHY_Aug2012	6	1	0	0	0	0	0	0	0
HU54M_MHY_Aug2013	1	1	0	0	0	0	0	0	0
HU54M_MID_April2013	2	0	0	0	0	0	0	0	0
HU54M_SRF_April2013	3	0	0	0	0	0	0	0	0
HU54M_SRF_Aug2013	1	0	0	0	0	0	0	0	0
LakeGuardian_ShipWater1	4	0	0	0	0	0	0	0	0
LakeGuardian_ShipWater2	3	0	0	0	0	0	0	0	0
MI18M_B10_April2013	7	0	0	0	0	0	0	0	0
MI18M_B10_Aug2012	3	0	0	0	0	0	0	0	0
MI18M_B10_Aug2013	23	4	0	0	0	0	0	0	0
MI18M_MHY_Aug2012	1	0	0	0	0	0	0	0	0
MI18M_MID_April2013	8	2	0	0	0	0	0	0	0
MI18M_SRF_April2013	2	0	0	0	0	0	0	0	0
MI27M_B10_April2013	151	8	0	0	0	0	1	0	0
MI27M_B10_Aug2013	9	1	0	0	0	0	0	0	0
MI27M_MHY_Aug2013	1	0	0	0	0	0	0	0	0
MI27M_MID_April2013	262	12	0	3	2	2	0	0	0
MI27M_SRF_Apr2012	2	0	0	0	0	0	0	0	0
MI27M_SRF_April2013	90	3	0	0	1	1	0	0	0
MI40_B10_Aug2015	15	1	2	0	0	0	0	0	0
MI40_DCL_Aug2015	1	0	0	0	0	0	0	0	0
MI40_MHY_Aug2015	1	0	0	0	0	0	0	0	0
MI40_SRF_Aug2015	0	1	0	0	0	0	0	0	0
MI41M_B10_1L_Aug2015	28	3	1	0	0	0	0	0	0
MI41M_B10_April2013	644	32	0	9	6	8	0	0	0
MI41M_B10_Aug2012	2976	154	0	39	21	22	4	0	0
MI41M_B10_Aug2013	559	24	0	6	2	2	0	0	0
MI41M_B10_Aug2015	30	2	0	1	0	1	0	0	0
MI41M_DCL_1L_Aug2015	1	0	0	0	0	0	0	0	0
MI41M_DCL_Aug2013	2	0	0	0	0	0	0	0	0
MI41M_DCL_Aug2015	3	0	0	0	0	0	0	0	0
MI41M_MHY_1L_Aug2015	4	1	0	0	0	0	0	0	0
MI41M_MHY_Aug2012	699	38	0	4	7	3	0	0	0
MI41M_MHY_Aug2013	51	3	0	1	1	1	0	0	0
MI41M_MHY_Aug2015	2	0	0	0	0	0	0	0	0
MI41M_MID_April2013	555	25	0	6	3	0	1	0	0
MI41M_SRF_April2013	707	46	0	8	7	3	1	0	0
MIFO_B10_Aug2015	3	0	0	0	0	0	0	0	0
MIFO_DCL_Aug2015	1	0	0	0	0	0	0	0	0
MIFO_MHY_Aug2015	7	1	0	0	0	0	0	0	0
ON33M_B10_April2013	35	3	0	2	1	0	0	0	0
ON33M_B10_Aug2012	25	1	0	1	0	1	0	0	0
ON33M_B10_Aug2013	234	9	0	3	2	3	0	0	0
ON33M_DCL_Aug2013	1	0	0	0	0	0	0	0	0
ON33M_MHY_Aug2012	11	0	0	0	0	0	0	0	0
ON33M_MHY_Aug2013	251	8	0	0	1	2	0	0	0
ON33M_MID_April2013	599	37	0	7	1	3	0	0	0
ON33M_SRF_Apr2012	5	1	0	0	0	0	0	0	0
ON33M_SRF_April2013	317	15	0	2	1	3	1	0	0
ON55M_B10_April2013	37	0	0	1	0	0	0	0	0
ON55M_B10_Aug2012	408	25	1	15	3	1	0	0	0
ON55M_B10_Aug2013	1482	67	1	23	14	4	0	0	0
ON55M_MHY_Aug2012	175	10	0	2	1	3	0	0	0
ON55M_MHY_Aug2013	1776	91	0	30	6	9	3	0	0
ON55M_MID_April2013	67	3	0	0	1	0	0	0	0
ON55M_SRF_April2013	25	0	0	1	0	0	0	0	0
ON55M_SRF_Aug2012	1	0	0	0	0	0	0	0	0
ON68b_B10_Aug2012	1	0	0	0	0	0	0	0	0
ON68b_B10_Aug2013	1	0	0	0	0	0	0	0	0
ON68b_SRF_Aug2012	1	0	0	0	0	0	0	0	0
SU01M_B10_April2013	239	10	12	3	1	1	0	0	1
SU01M_B10_Aug2012	35	0	0	0	1	0	0	0	0
SU01M_B10_Aug2013	19	1	4	0	1	0	0	0	0
SU01M_DCL_Aug2012	6	1	0	0	0	0	0	0	0
SU01M_DCL_Aug2013	22	1	1	0	0	0	0	0	1
SU01M_MHY_Aug2012	40	4	0	0	0	0	0	0	0
SU01M_MHY_Aug2013	43	2	6	0	0	0	0	0	0
SU01M_MID_April2013	29	0	1	0	0	0	0	0	0
SU01M_SRF_April2013	15	2	0	0	0	0	0	0	0
SU01M_SRF_Aug2012	1	0	0	0	0	0	0	0	0
SU01M_SRF_Aug2013	1	0	0	0	0	0	0	0	0
SU08M_B10_April2013	5546	313	811	59	49	21	70	71	53
SU08M_B10_Aug2012	417	22	5	6	5	0	1	0	0
SU08M_B10_Aug2013	60	1	22	0	0	2	1	0	0
SU08M_DCL_Aug2012	53	1	1	1	0	0	0	0	0
SU08M_DCL_Aug2013	7	0	1	0	0	0	0	0	0
SU08M_MHY_Aug2012	418	25	4	7	3	2	0	0	0
SU08M_MHY_Aug2013	92	6	21	0	0	1	0	0	1
SU08M_MID_April2013	1262	77	173	22	3	6	8	11	12
SU08M_SRF_Apr2012	76	4	2	0	0	0	0	0	0
SU08M_SRF_April2013	949	57	119	11	3	8	9	7	7
SU08M_SRF_Aug2013	1	0	0	0	0	0	0	0	0
SU17M_B10_April2013	600	31	1	11	4	1	0	0	0
SU17M_B10_Aug2013	2	0	0	0	1	0	0	0	0
SU17M_MID_April2013	129	9	1	2	0	0	0	0	0
SU17M_SRF_April2013	10	1	1	0	0	0	0	0	0
SU18_B10_Aug2012	6	0	0	0	0	0	0	0	0
SU18_B10_Aug2013	23	2	0	1	0	0	0	0	0
SU18_DCL_Aug2013	12	1	0	0	0	0	0	0	0
SU18_MHY_Aug2012	2	0	0	0	0	0	0	0	0
SU18_MHY_Aug2013	31	1	0	0	1	0	0	0	0
SU18_SRF_Aug2012	1	0	0	0	0	0	0	0	0
SU18_SRF_Aug2013	1	0	0	0	0	0	0	0	0
