samples	GTGCCCAA	GTGTCCAA	GTACCCAA	GTGCCCGA	ATGCCCAA	GTGCCCAG	ATACCCAA
ER15M_B10_April2013	100.0	0.0	0.0	0.0	0.0	0.0	0.0
ER15M_Bminus_Aug2012	92.6089918256	4.56403269755	1.22615803815	0.596049046322	0.596049046322	0.187329700272	0.221389645777
ER15M_Bminus_Aug2013	91.6545928716	4.60736018545	1.94146624167	0.782381918285	0.405679513185	0.405679513185	0.202839756592
ER15M_DCL_Aug2013	89.6404109589	5.22260273973	1.54109589041	0.941780821918	1.3698630137	0.684931506849	0.599315068493
ER15M_MHY_Aug2012	92.8273373181	4.82688620729	1.0037216646	0.473666403519	0.496221946543	0.180444344198	0.19172211571
ER15M_MHY_Aug2013	90.98183391	5.62283737024	1.57871972318	0.865051903114	0.367647058824	0.389273356401	0.194636678201
ER78M_Bminus_Aug2012	92.8741092637	4.27553444181	1.18764845606	0.237529691211	0.712589073634	0.237529691211	0.475059382423
ER78M_Bminus_Aug2013	93.2584269663	2.24719101124	1.12359550562	2.24719101124	1.12359550562	0.0	0.0
ER78M_LEP_Aug2012	88.5714285714	11.4285714286	0.0	0.0	0.0	0.0	0.0
ER78M_LEP_Aug2013	100.0	0.0	0.0	0.0	0.0	0.0	0.0
ER78M_MHY_Aug2012	92.4731182796	5.37634408602	1.0752688172	0.537634408602	0.268817204301	0.0	0.268817204301
ER78M_SRF_Aug2012	50.0	50.0	0.0	0.0	0.0	0.0	0.0
ER91M_Bminus_April2013	100.0	0.0	0.0	0.0	0.0	0.0	0.0
ER91M_Bminus_Aug2012	100.0	0.0	0.0	0.0	0.0	0.0	0.0
ER91M_MEP_Aug2012	100.0	0.0	0.0	0.0	0.0	0.0	0.0
ER91M_MEP_Aug2013	100.0	0.0	0.0	0.0	0.0	0.0	0.0
ER91M_MID_April2013	100.0	0.0	0.0	0.0	0.0	0.0	0.0
ER91M_SRF_April2013	100.0	0.0	0.0	0.0	0.0	0.0	0.0
ER91M_SRF_Aug2012	71.4285714286	14.2857142857	0.0	0.0	0.0	14.2857142857	0.0
HU15M_B10_April2013	97.6470588235	1.17647058824	0.0	0.0	0.0	0.0	1.17647058824
HU15M_B10_Aug2013	100.0	0.0	0.0	0.0	0.0	0.0	0.0
HU15M_MHY_Aug2012	100.0	0.0	0.0	0.0	0.0	0.0	0.0
HU15M_MID_April2013	92.1568627451	3.92156862745	3.92156862745	0.0	0.0	0.0	0.0
HU15M_SRF_April2013	85.1063829787	0.0	10.6382978723	0.0	0.0	0.0	4.25531914894
HU45M_B10_April2013	92.1146953405	5.73476702509	1.0752688172	0.358422939068	0.358422939068	0.0	0.358422939068
HU45M_B10_Aug2012	92.9943502825	4.40677966102	1.58192090395	0.45197740113	0.225988700565	0.338983050847	0.0
HU45M_DCL_Aug2012	100.0	0.0	0.0	0.0	0.0	0.0	0.0
HU45M_MHY_Aug2012	91.8057663126	5.76631259484	1.21396054628	0.606980273141	0.455235204856	0.151745068285	0.0
HU45M_MID_April2013	91.3385826772	7.08661417323	0.787401574803	0.393700787402	0.0	0.393700787402	0.0
HU45M_SRF_Apr2012	100.0	0.0	0.0	0.0	0.0	0.0	0.0
HU45M_SRF_April2013	94.1176470588	3.67647058824	1.83823529412	0.367647058824	0.0	0.0	0.0
HU45M_SRF_Aug2012	100.0	0.0	0.0	0.0	0.0	0.0	0.0
HU45M_SRF_Aug2013	100.0	0.0	0.0	0.0	0.0	0.0	0.0
HU54M_B10_April2013	95.8490566038	2.64150943396	0.754716981132	0.0	0.754716981132	0.0	0.0
HU54M_B10_Aug2012	92.7710843373	5.03189227498	0.921332388377	0.354358610914	0.425230333097	0.354358610914	0.141743444366
HU54M_DCL_Aug2012	94.7368421053	2.63157894737	1.57894736842	0.526315789474	0.0	0.526315789474	0.0
HU54M_MHY_Aug2012	91.4833215046	5.39389638041	1.3484740951	0.780695528744	0.425833924769	0.567778566359	0.0
HU54M_MHY_Aug2013	100.0	0.0	0.0	0.0	0.0	0.0	0.0
HU54M_MID_April2013	94.2176870748	2.38095238095	1.36054421769	0.340136054422	0.680272108844	0.680272108844	0.340136054422
HU54M_SRF_April2013	90.9604519774	7.62711864407	0.0	0.847457627119	0.282485875706	0.282485875706	0.0
MI18M_B10_April2013	92.3076923077	6.59340659341	1.0989010989	0.0	0.0	0.0	0.0
MI18M_B10_Aug2013	78.9473684211	21.0526315789	0.0	0.0	0.0	0.0	0.0
MI18M_MHY_Aug2012	100.0	0.0	0.0	0.0	0.0	0.0	0.0
MI18M_MHY_Aug2013	50.0	16.6666666667	33.3333333333	0.0	0.0	0.0	0.0
MI18M_MID_April2013	92.3566878981	4.45859872611	1.27388535032	0.0	1.27388535032	0.636942675159	0.0
MI18M_SRF_April2013	87.2180451128	6.01503759398	3.00751879699	0.751879699248	1.5037593985	0.751879699248	0.751879699248
MI18M_SRF_Aug2012	100.0	0.0	0.0	0.0	0.0	0.0	0.0
MI27M_B10_April2013	95.652173913	2.89855072464	1.44927536232	0.0	0.0	0.0	0.0
MI27M_B10_Aug2012	93.9024390244	2.43902439024	1.21951219512	0.0	1.21951219512	0.0	1.21951219512
MI27M_B10_Aug2013	100.0	0.0	0.0	0.0	0.0	0.0	0.0
MI27M_MHY_Aug2012	96.1206896552	2.15517241379	0.0	0.431034482759	0.431034482759	0.431034482759	0.431034482759
MI27M_MID_April2013	91.5094339623	4.71698113208	3.77358490566	0.0	0.0	0.0	0.0
MI27M_SRF_Apr2012	83.3333333333	16.6666666667	0.0	0.0	0.0	0.0	0.0
MI27M_SRF_April2013	51.724137931	31.0344827586	6.89655172414	3.44827586207	3.44827586207	3.44827586207	0.0
MI27M_SRF_Aug2013	100.0	0.0	0.0	0.0	0.0	0.0	0.0
MI40_B10_Aug2015	90.9090909091	9.09090909091	0.0	0.0	0.0	0.0	0.0
MI40_DCL_Aug2015	100.0	0.0	0.0	0.0	0.0	0.0	0.0
MI40_MHY_Aug2015	100.0	0.0	0.0	0.0	0.0	0.0	0.0
MI41M_B10_1L_Aug2015	85.7142857143	0.0	14.2857142857	0.0	0.0	0.0	0.0
MI41M_B10_April2013	72.7272727273	13.6363636364	4.54545454545	0.0	4.54545454545	4.54545454545	0.0
MI41M_B10_Aug2012	100.0	0.0	0.0	0.0	0.0	0.0	0.0
MI41M_B10_Aug2013	90.9090909091	0.0	9.09090909091	0.0	0.0	0.0	0.0
MI41M_B10_Aug2015	83.3333333333	16.6666666667	0.0	0.0	0.0	0.0	0.0
MI41M_DCL_1L_Aug2015	80.0	20.0	0.0	0.0	0.0	0.0	0.0
MI41M_DCL_Aug2015	100.0	0.0	0.0	0.0	0.0	0.0	0.0
MI41M_MHY_1L_Aug2015	100.0	0.0	0.0	0.0	0.0	0.0	0.0
MI41M_MHY_Aug2012	100.0	0.0	0.0	0.0	0.0	0.0	0.0
MI41M_MHY_Aug2013	75.0	0.0	25.0	0.0	0.0	0.0	0.0
MI41M_MHY_Aug2015	77.7777777778	22.2222222222	0.0	0.0	0.0	0.0	0.0
MI41M_MID_April2013	92.8571428571	3.57142857143	3.57142857143	0.0	0.0	0.0	0.0
MI41M_SRF_April2013	78.5714285714	14.2857142857	0.0	0.0	7.14285714286	0.0	0.0
MI41M_SRF_Aug2012	100.0	0.0	0.0	0.0	0.0	0.0	0.0
MIFO_B10_Aug2015	100.0	0.0	0.0	0.0	0.0	0.0	0.0
MIFO_DCL_Aug2015	66.6666666667	33.3333333333	0.0	0.0	0.0	0.0	0.0
MIFO_MHY_Aug2015	100.0	0.0	0.0	0.0	0.0	0.0	0.0
MIFO_SRF_Aug2015	100.0	0.0	0.0	0.0	0.0	0.0	0.0
ON33M_B10_April2013	96.1538461538	3.84615384615	0.0	0.0	0.0	0.0	0.0
ON33M_B10_Aug2012	92.8981032201	4.27878253198	1.54389060432	0.441111601235	0.352889280988	0.485222761359	0.0
ON33M_B10_Aug2013	92.503407542	4.72512494321	1.31758291686	0.477055883689	0.522489777374	0.318037255793	0.136301681054
ON33M_MHY_Aug2012	93.3008874893	4.60921843687	1.03063269396	0.25765817349	0.286286859433	0.372172917263	0.143143429717
ON33M_MHY_Aug2013	92.4110141034	4.99216476382	1.3655697336	0.268636668905	0.49250055966	0.380568614283	0.0895455563018
ON33M_MID_April2013	93.0599369085	5.99369085174	0.630914826498	0.0	0.0	0.315457413249	0.0
ON33M_SRF_Apr2012	100.0	0.0	0.0	0.0	0.0	0.0	0.0
ON33M_SRF_April2013	94.9275362319	2.89855072464	1.08695652174	0.36231884058	0.36231884058	0.36231884058	0.0
ON55M_B10_April2013	100.0	0.0	0.0	0.0	0.0	0.0	0.0
ON55M_B10_Aug2012	93.5828877005	3.74331550802	0.534759358289	0.0	1.60427807487	0.534759358289	0.0
ON55M_B10_Aug2013	78.5714285714	11.9047619048	7.14285714286	0.0	0.0	2.38095238095	0.0
ON55M_MHY_Aug2012	92.6680244399	4.0733197556	1.42566191446	0.61099796334	0.61099796334	0.40733197556	0.20366598778
ON55M_MHY_Aug2013	95.3846153846	3.07692307692	1.53846153846	0.0	0.0	0.0	0.0
ON55M_MID_April2013	88.8888888889	5.55555555556	0.0	0.0	5.55555555556	0.0	0.0
ON55M_SRF_April2013	90.9090909091	4.54545454545	0.0	0.0	0.0	4.54545454545	0.0
ON55M_SRF_Aug2012	100.0	0.0	0.0	0.0	0.0	0.0	0.0
ON68b_B10_Aug2012	100.0	0.0	0.0	0.0	0.0	0.0	0.0
ON68b_B10_Aug2013	66.6666666667	0.0	0.0	33.3333333333	0.0	0.0	0.0
ON68b_DCL_Aug2012	100.0	0.0	0.0	0.0	0.0	0.0	0.0
ON68b_SRF_Aug2012	0.0	100.0	0.0	0.0	0.0	0.0	0.0
SU01M_B10_Aug2012	100.0	0.0	0.0	0.0	0.0	0.0	0.0
SU01M_B10_Aug2013	100.0	0.0	0.0	0.0	0.0	0.0	0.0
SU01M_DCL_Aug2012	100.0	0.0	0.0	0.0	0.0	0.0	0.0
SU01M_MHY_Aug2012	100.0	0.0	0.0	0.0	0.0	0.0	0.0
SU01M_MHY_Aug2013	100.0	0.0	0.0	0.0	0.0	0.0	0.0
SU01M_SRF_April2013	100.0	0.0	0.0	0.0	0.0	0.0	0.0
SU01M_SRF_Aug2013	100.0	0.0	0.0	0.0	0.0	0.0	0.0
SU08M_B10_Aug2012	100.0	0.0	0.0	0.0	0.0	0.0	0.0
SU08M_SRF_April2013	100.0	0.0	0.0	0.0	0.0	0.0	0.0
SU17M_B10_April2013	100.0	0.0	0.0	0.0	0.0	0.0	0.0
SU17M_MID_April2013	0.0	0.0	0.0	0.0	100.0	0.0	0.0
SU18_B10_Aug2013	100.0	0.0	0.0	0.0	0.0	0.0	0.0
SU18_DCL_Aug2013	100.0	0.0	0.0	0.0	0.0	0.0	0.0
SU18_MHY_Aug2013	0.0	100.0	0.0	0.0	0.0	0.0	0.0
